com\ReservationsImplTest.class
com\VacationsImplTest.class
com\AbsencesImplTest.class
com\UsersImplTest.class
com\CancellationsImplTest.class
com\ContractsImplTest.class
com\ChildrenImplTest.class
com\OffdaysImplTest.class
com\NurseriesImplTest.class
