-------------------------------------------------------------------------------
Test set: com.CancellationsImplTest
-------------------------------------------------------------------------------
Tests run: 2, Failures: 0, Errors: 0, Skipped: 0, Time elapsed: 1.34 sec
