-------------------------------------------------------------------------------
Test set: com.OffdaysImplTest
-------------------------------------------------------------------------------
Tests run: 2, Failures: 0, Errors: 0, Skipped: 0, Time elapsed: 1.073 sec
