-------------------------------------------------------------------------------
Test set: com.AbsencesImplTest
-------------------------------------------------------------------------------
Tests run: 2, Failures: 0, Errors: 0, Skipped: 0, Time elapsed: 6.386 sec
